%YAML 1.1
%TAG !u! tag:unity3d.com,2011:
--- !u!114 &11400000
MonoBehaviour:
  m_ObjectHideFlags: 0
  m_CorrespondingSourceObject: {fileID: 0}
  m_PrefabInstance: {fileID: 0}
  m_PrefabAsset: {fileID: 0}
  m_GameObject: {fileID: 0}
  m_Enabled: 1
  m_EditorHideFlags: 0
  m_Script: {fileID: 11500000, guid: 59306422a2ca4454aabce3daa79c3334, type: 3}
  m_Name: New Aura Base Settings
  m_EditorClassIdentifier: 
  useDensity: 0
  density: 0.91
  useScattering: 1
  scattering: 1
  useAmbientLighting: 0
  ambientLightingStrength: 1.53
  useColor: 0
  color: {r: 0.0000005066395, g: 0.5, b: 0.5, a: 1}
  colorStrength: 1
  useExtinction: 0
  extinction: 0.75
