%YAML 1.1
%TAG !u! tag:unity3d.com,2011:
--- !u!49 &4900000
TextAsset:
  m_ObjectHideFlags: 0
  m_CorrespondingSourceObject: {fileID: 0}
  m_PrefabInstance: {fileID: 0}
  m_PrefabAsset: {fileID: 0}
  m_Name: digger_version
  m_Script: 10021
